Lab 2
…
# answer: There are 131,386 rows and 8 columns. The columns are tree ID, stand ID, stand, year, species, age, inc (linear growth increment), and rad_ib (bark radius of tree at breast height).

#2
tree_count1 <- tree_dat %>%
  filter(standID == 1)
print(tree_count1)

# A tibble: 979 × 8
   treeID standID stand  year species   age   inc rad_ib
    <dbl>   <dbl> <chr> <dbl> <chr>   <dbl> <dbl>  <dbl>
 1      1       1 A1     1960 ABBA        1 0.93    10.8
 2      1       1 A1     1961 ABBA        2 0.95    11.7
 3      1       1 A1     1962 ABBA        3 0.985   12.7
 4      1       1 A1     1963 ABBA        4 0.985   13.7
 5      1       1 A1     1964 ABBA        5 0.715   14.4
 6      1       1 A1     1965 ABBA        6 0.84    15.3
 7      1       1 A1     1966 ABBA        7 0.685   15.9
 8      1       1 A1     1967 ABBA        8 0.94    16.9
 9      1       1 A1     1968 ABBA        9 1.16    18.0
10      1       1 A1     1969 ABBA       10 0.775   18.8
# ℹ 969 more rows
…
#answer: Table

#14
tree_dat <- tree_dat %>%
  mutate(DBH = rad_ib_mm/10) %>%
  mutate(BA_m2 = 0.00007854*DBH^2)

tree_dat %>%
filter(species == "POTR", year == 2007)

# A tibble: 93 × 10
   treeID standID stand  year species   age inc_mm rad_ib_mm   DBH   BA_m2
    <dbl>   <dbl> <chr> <dbl> <chr>   <dbl>  <dbl>     <dbl> <dbl>   <dbl>
 1     71       3 A4     2007 POTR       84  0.755     151.  15.1  0.0178 
 2    216       6 B1     2007 POTR       66  0.59      108.  10.8  0.00908
 3    217       6 B1     2007 POTR       44  0.76       56.1  5.61 0.00247
 4    323       7 B2     2007 POTR       31  0.785      57.9  5.79 0.00264
 5    324       7 B2     2007 POTR       31  0.775      63.0  6.30 0.00312
 6    325       7 B2     2007 POTR       37  1.04       78.3  7.83 0.00481
 7    351       7 B2     2007 POTR       34  1.06       61.2  6.12 0.00294
 8    352       7 B2     2007 POTR       32  0.53       62.0  6.20 0.00302
 9    353       7 B2     2007 POTR       26  1.28       56.0  5.60 0.00246
10    354       7 B2     2007 POTR       34  1.60       79.6  7.96 0.00497
# ℹ 83 more rows
…
#answer: Stands 1, 15, 16, 17, 24

# final question
tree_dat %>%
  group_by(species) %>%
  mutate(inc_change = inc_mm - lag(inc_mm))

# A tibble: 131,386 × 11
# Groups:   species [15]
   treeID standID stand  year species   age inc_mm rad_ib_mm   DBH     BA_m2
    <dbl>   <dbl> <chr> <dbl> <chr>   <dbl>  <dbl>     <dbl> <dbl>     <dbl>
 1      1       1 A1     1960 ABBA        1  0.93       10.8  1.08 0.0000913
 2      1       1 A1     1961 ABBA        2  0.95       11.7  1.17 0.000108 
 3      1       1 A1     1962 ABBA        3  0.985      12.7  1.27 0.000127 
 4      1       1 A1     1963 ABBA        4  0.985      13.7  1.37 0.000147 
 5      1       1 A1     1964 ABBA        5  0.715      14.4  1.44 0.000163 
 6      1       1 A1     1965 ABBA        6  0.84       15.3  1.53 0.000183 
 7      1       1 A1     1966 ABBA        7  0.685      15.9  1.59 0.000200 
 8      1       1 A1     1967 ABBA        8  0.94       16.9  1.69 0.000224 
 9      1       1 A1     1968 ABBA        9  1.16       18.0  1.80 0.000256 
10      1       1 A1     1969 ABBA       10  0.775      18.8  1.88 0.000278 
# ℹ 131,376 more rows
# ℹ 1 more variable: inc_change <dbl>
…
